{
    "iisSettings": {
        "windowsAuthentication": false,
        "anonymousAuthentication": true,
        "iisExpress": {
            "applicationUrl": "http://localhost:33493",
            "sslPort": 44323
        }
    },
    "profiles": {
        "Simba3.WebClient": {
            "commandName": "Project",
            "dotnetRunMessages": true,
            "launchBrowser": true,
            "inspectUri": "{wsProtocol}://{url.hostname}:{url.port}/_framework/debug/ws-proxy?browser={browserInspectUri}",
            "applicationUrl": "https://localhost:7051;http://localhost:5244",
            "environmentVariables": {
                "ASPNETCORE_ENVIRONMENT": "Development"
            }
        },
        "IIS Express": {
            "commandName": "IISExpress",
            "launchBrowser": true,
            "inspectUri": "{wsProtocol}://{url.hostname}:{url.port}/_framework/debug/ws-proxy?browser={browserInspectUri}",
            "environmentVariables": {
                "ASPNETCORE_ENVIRONMENT": "Development"
            }
        }
    },
    "ApplicationConfig": {
        "Uri": "http://localhost:10004/",
        "_Uri": "http://se02-maapp01:10004/"
    }
}
